<svg width="24" height="24" viewBox="0 0 24 24" fill="none" xmlns="http://www.w3.org/2000/svg">
<path d="M7.3511 20.6611L7.35112 20.6611L7.34743 20.6575C7.05698 20.373 7.05695 19.8924 7.3411 19.6082L14.5911 12.3582L14.9444 12.0049L14.5913 11.6514L7.35134 4.40138L7.3511 4.40113C7.05636 4.1064 7.05636 3.63298 7.3511 3.33824C7.64584 3.0435 8.11925 3.0435 8.41399 3.33824L16.724 11.6482C16.9187 11.843 16.9187 12.1564 16.724 12.3511L8.41399 20.6611C8.11925 20.9559 7.64584 20.9559 7.3511 20.6611Z" fill="black" stroke="white"/>
</svg>
