<svg width="25" height="24" viewBox="0 0 25 24" fill="none" xmlns="http://www.w3.org/2000/svg">
<path d="M18.5 18.9983H6.5C5.95 18.9983 5.5 18.5483 5.5 17.9983V5.99829C5.5 5.44829 5.95 4.99829 6.5 4.99829H18.5C19.05 4.99829 19.5 5.44829 19.5 5.99829V17.9983C19.5 18.5483 19.05 18.9983 18.5 18.9983ZM19.5 2.99829H5.5C4.4 2.99829 3.5 3.89829 3.5 4.99829V18.9983C3.5 20.0983 4.4 20.9983 5.5 20.9983H19.5C20.6 20.9983 21.5 20.0983 21.5 18.9983V4.99829C21.5 3.89829 20.6 2.99829 19.5 2.99829Z" fill="black"/>
</svg>
