<svg width="47" height="46" viewBox="0 0 47 46" fill="none" xmlns="http://www.w3.org/2000/svg">
<path d="M43.3055 23.3758C43.3055 21.7262 43.1689 20.5223 42.8732 19.2739H23.646V26.7198H34.9319C34.7045 28.5702 33.4758 31.3568 30.7452 33.2294L30.707 33.4787L36.7862 38.0928L37.2074 38.134C41.0756 34.6339 43.3055 29.4842 43.3055 23.3758Z" fill="#4285F4"/>
<path d="M23.6449 42.9943C29.174 42.9943 33.8158 41.2107 37.2063 38.1344L30.7441 33.2297C29.0148 34.4112 26.6939 35.2361 23.6449 35.2361C18.2295 35.2361 13.6332 31.7361 11.9947 26.8984L11.7546 26.9184L5.43325 31.7115L5.35059 31.9367C8.71815 38.4909 15.6354 42.9943 23.6449 42.9943Z" fill="#34A853"/>
<path d="M11.996 26.8984C11.5637 25.65 11.3135 24.3123 11.3135 22.9302C11.3135 21.5479 11.5637 20.2104 11.9732 18.962L11.9618 18.6961L5.56124 13.826L5.35182 13.9236C3.96388 16.6435 3.16748 19.6977 3.16748 22.9302C3.16748 26.1627 3.96388 29.2168 5.35182 31.9366L11.996 26.8984Z" fill="#FBBC05"/>
<path d="M23.645 10.6245C27.4904 10.6245 30.0843 12.2518 31.5634 13.6118L37.3429 8.08307C33.7934 4.85056 29.1742 2.86646 23.645 2.86646C15.6355 2.86646 8.71817 7.36965 5.35059 13.9238L11.972 18.9622C13.6332 14.1245 18.2295 10.6245 23.645 10.6245Z" fill="#EB4335"/>
</svg>
