<svg width="47" height="46" viewBox="0 0 47 46" fill="none" xmlns="http://www.w3.org/2000/svg">
<path d="M43.3052 23.3754C43.3052 21.7257 43.1686 20.5218 42.8729 19.2734H23.6456V26.7193H34.9316C34.7041 28.5697 33.4754 31.3564 30.7449 33.2289L30.7066 33.4782L36.7859 38.0923L37.2071 38.1335C41.0752 34.6334 43.3052 29.4837 43.3052 23.3754Z" fill="#4285F4"/>
<path d="M23.6445 42.9943C29.1737 42.9943 33.8154 41.2107 37.2059 38.1344L30.7437 33.2297C29.0145 34.4112 26.6935 35.2361 23.6445 35.2361C18.2291 35.2361 13.6328 31.7361 11.9944 26.8984L11.7542 26.9184L5.43289 31.7115L5.35022 31.9367C8.71778 38.4909 15.635 42.9943 23.6445 42.9943Z" fill="#34A853"/>
<path d="M11.9957 26.8985C11.5634 25.6501 11.3132 24.3124 11.3132 22.9303C11.3132 21.5481 11.5634 20.2105 11.973 18.9621L11.9615 18.6962L5.56099 13.8262L5.35158 13.9238C3.96364 16.6436 3.16724 19.6978 3.16724 22.9303C3.16724 26.1628 3.96364 29.2169 5.35158 31.9367L11.9957 26.8985Z" fill="#FBBC05"/>
<path d="M23.6446 10.6252C27.49 10.6252 30.084 12.2526 31.563 13.6126L37.3426 8.08381C33.793 4.85129 29.1738 2.86719 23.6446 2.86719C15.6351 2.86719 8.7178 7.37039 5.35022 13.9245L11.9717 18.9629C13.6329 14.1253 18.2292 10.6252 23.6446 10.6252Z" fill="#EB4335"/>
</svg>
