<svg width="68" height="22" viewBox="0 0 68 22" fill="none" xmlns="http://www.w3.org/2000/svg">
<path d="M5.27805 21.5894V13.4461C5.59492 13.0616 6.09663 12.8519 6.73036 12.7471C6.17584 12.7121 5.67414 12.7471 5.27805 12.9568V12.8519H3.05998V21.5894H0.0497437V0.968994H3.05998V8.86765H5.27805V0.968994H8.3147V21.5894H5.27805Z" fill="#F79B2D"/>
<path d="M15.0746 5.02317C14.4672 4.98822 13.9127 5.54742 13.9127 6.84056V8.58805H17.3454V12.817H13.9127L13.9919 16.5217C13.3582 16.5566 12.6452 16.2071 11.9059 15.5081C12.5924 16.8013 13.9127 17.5352 15.101 17.5352H18.5865V21.6243H14.8369C14.2296 21.6243 13.6222 21.4845 12.9885 21.17C11.6154 20.4011 10.9025 18.8633 10.9025 16.5916V6.03672C10.9025 3.76498 11.589 2.26214 12.9885 1.45829C13.5958 1.14374 14.2296 1.00394 14.8369 1.00394H18.5865V5.05812H15.0746V5.02317Z" fill="#F79B2D"/>
<path d="M29.2808 3.90476C29.4392 4.60375 29.5184 5.23285 29.5184 5.79205V9.56662C29.5184 9.98602 29.492 10.3705 29.4392 10.7549V10.72C29.4392 10.72 29.4392 10.72 29.4392 10.685C29.0167 12.2927 28.0925 13.5859 26.6666 14.5645C27.4852 14.3897 28.0925 13.8655 28.8583 13.2014C29.7825 14.6693 30.1786 16.9061 30.0465 19.9467H30.3106V21.5544H27.0099L27.0363 17.9196C27.0363 16.5566 26.429 14.7392 25.2935 14.4946H24.2109V21.5544H21.1478V0.934021H23.3923C24.1317 0.934021 24.871 0.934021 25.6104 0.934021C27.3796 0.968971 28.5942 1.94757 29.2808 3.90476ZM26.1649 5.2678C26.0329 5.16295 25.9008 5.09305 25.7688 5.09305H24.5013V11.6636H25.7688C26.3233 11.6636 26.5874 11.2442 26.5874 10.3705V6.3862C26.5874 6.3163 26.5874 6.17649 26.5346 5.96679C26.7986 4.1494 26.1121 2.71646 25.1615 1.42332C25.6896 2.68151 26.2441 3.9397 26.1649 5.2678Z" fill="#F79B2D"/>
<path d="M36.9912 5.05812C35.4861 4.91832 34.8259 5.47752 33.8753 6.80561C34.8523 5.79207 35.6181 5.37267 36.2254 5.51247C36.199 5.54742 36.1462 5.61731 36.1198 5.72216C35.9878 6.03671 35.935 6.42116 35.935 6.84056V8.62301H39.3677V12.817H35.9878V15.9625V21.6243H32.8983V6.03672C32.8983 3.76498 33.5849 2.22719 35.0108 1.45829C35.6181 1.14374 36.2254 1.00394 36.8592 1.00394H37.0968H40.6088V5.05812H36.9912Z" fill="#F79B2D"/>
<path d="M51.4087 4.60376C51.5143 5.02316 51.5671 5.58235 51.5671 6.28135V21.4496L51.4615 21.5894H48.5305L48.4248 21.4496V16.4867H46.4708H45.1241L46.286 16.9061V21.4496L46.1804 21.5894H43.3022L43.1965 21.4496V6.1765C43.1965 3.10092 44.8865 1.28352 46.7613 1.00392C48.6361 0.724324 50.6693 1.87767 51.4087 4.60376ZM47.3422 3.83486C47.5799 4.25426 47.7647 4.67366 47.8439 5.09306C47.7383 5.05811 47.5799 4.98821 47.3686 4.98821C46.6293 4.95326 46.2596 5.51245 46.2596 6.6658V12.2578H48.3984V6.2464C48.3984 6.00175 48.372 5.79205 48.2928 5.6173C47.9759 4.00961 47.2102 3.27567 46.5501 2.50677C46.8141 2.96112 47.0782 3.41546 47.3422 3.83486Z" fill="#F79B2D"/>
<path d="M59.5152 4.74357V21.6243H56.4258V4.74357H54.1285V0.968994H61.8125V4.74357H59.5152Z" fill="#F79B2D"/>
<path d="M64.4003 21.5894V0.968994H67.4633V21.5894H64.4003Z" fill="#F79B2D"/>
</svg>
