<svg width="24" height="24" viewBox="0 0 24 24" fill="none" xmlns="http://www.w3.org/2000/svg">
<path d="M15.7069 16.59L11.1269 12L15.7069 7.41L14.2969 6L8.29688 12L14.2969 18L15.7069 16.59Z" fill="#616161"/>
</svg>
