<svg width="18" height="18" viewBox="0 0 18 18" fill="none" xmlns="http://www.w3.org/2000/svg">
<path d="M9 1.62091C5.85 1.62091 3 4.03591 3 7.77091C3 10.1559 4.8375 12.9609 8.505 16.1934C8.79 16.4409 9.2175 16.4409 9.5025 16.1934C13.1625 12.9609 15 10.1559 15 7.77091C15 4.03591 12.15 1.62091 9 1.62091ZM9 9.12091C8.175 9.12091 7.5 8.44591 7.5 7.62091C7.5 6.79591 8.175 6.12091 9 6.12091C9.825 6.12091 10.5 6.79591 10.5 7.62091C10.5 8.44591 9.825 9.12091 9 9.12091Z" fill="#767F8C"/>
</svg>
