<svg width="25" height="25" viewBox="0 0 25 25" fill="none" xmlns="http://www.w3.org/2000/svg">
<g clip-path="url(#clip0_2365_3463)">
<path d="M22.5 19.332H16.5V15.332H13.82C12.68 17.752 10.22 19.332 7.5 19.332C3.64 19.332 0.5 16.192 0.5 12.332C0.5 8.47203 3.64 5.33203 7.5 5.33203C10.22 5.33203 12.67 6.91203 13.82 9.33203H24.5V15.332H22.5V19.332ZM18.5 17.332H20.5V13.332H22.5V11.332H12.44L12.21 10.662C11.51 8.67203 9.61 7.33203 7.5 7.33203C4.74 7.33203 2.5 9.57203 2.5 12.332C2.5 15.092 4.74 17.332 7.5 17.332C9.61 17.332 11.51 15.992 12.21 14.002L12.44 13.332H18.5V17.332ZM7.5 15.332C5.85 15.332 4.5 13.982 4.5 12.332C4.5 10.682 5.85 9.33203 7.5 9.33203C9.15 9.33203 10.5 10.682 10.5 12.332C10.5 13.982 9.15 15.332 7.5 15.332ZM7.5 11.332C6.95 11.332 6.5 11.782 6.5 12.332C6.5 12.882 6.95 13.332 7.5 13.332C8.05 13.332 8.5 12.882 8.5 12.332C8.5 11.782 8.05 11.332 7.5 11.332Z" fill="black"/>
</g>
<defs>
<clipPath id="clip0_2365_3463">
<rect width="24" height="24" fill="white" transform="translate(0.5 0.332031)"/>
</clipPath>
</defs>
</svg>
